Sentiment Analysis Twitter
…
eth_words <- tibble(tweet=eth_text) %>% 
   mutate(tweet = stringr::str_replace_all(tweet, "https://t.co/[A-Za-z\\d]+|http://[A-Za-z\\d]+|&amp;|&lt;|&gt;|RT|https|\'|\"", "")) %>%  unnest_tokens(word,tweet, 
                                                                                                token="regex", 
                                                                                                pattern="([^A-Za-z_\\d#@']|'(?![A-Za-z_\\d#@]))") %>% 
  anti_join(stop_words,by="word") %>% 
  filter(stringr::str_detect(word, "[a-z]")) 
eth_words %>% 
  count(word,sort=TRUE) %>% 
  print(n=25)

## # A tibble: 2,389 × 2
##                      word     n
##                     <chr> <int>
## 1                    pubg   763
## 2                   #pubg   208
## 3                @youtube   111
## 4                 playing    97
## 5                  stream    95
## 6                    play    94
## 7                    live    92
## 8                    game    77
## 9           battlegrounds    67
## 10                     im    60
## 11                  video    59
## 12                  games    46
## 13                    win    43
## 14                   time    42
## 15                   solo    41
## 16                tonight    41
## 17                #twitch    39
## 18         playerunknowns    39
## 19       @pubattlegrounds    35
## 20 #supportsmallstreamers    34
## 21                  squad    34
## 22                chicken    32
## 23                  night    32
## 24                    fun    29
## 25              streaming    29
## # ... with 2,364 more rows
…
eth_bing_sentiments <-
  eth_words %>% 
  count(word,sort=TRUE) %>% 
  inner_join(.,get_sentiments("bing"),by="word")
print(eth_bing_sentiments)

## # A tibble: 263 × 3
##       word     n sentiment
##      <chr> <int>     <chr>
## 1      win    43  positive
## 2      fun    29  positive
## 3     kill    19  negative
## 4    chill    18  negative
## 5      top    17  positive
## 6     love    15  positive
## 7    kills    13  negative
## 8   winner    12  positive
## 9     shit    11  negative
## 10 awesome    10  positive
## # ... with 253 more rows
…
